Lab 8: Machine Learning Tuning – csu-ess-lab6
…
# c. 
walk2(remote_files, local_files, download.file, quiet = TRUE)

# d. Read and merge data
camels <- map(local_files, read_delim, show_col_types = FALSE)

library(powerjoin)
camels <- power_full_join(camels ,by = 'gauge_id')

print(camels)

# A tibble: 671 × 58
   gauge_id p_mean pet_mean p_seasonality frac_snow aridity high_prec_freq
   <chr>     <dbl>    <dbl>         <dbl>     <dbl>   <dbl>          <dbl>
 1 01013500   3.13     1.97        0.188      0.313   0.631           13.0
 2 01022500   3.61     2.12       -0.115      0.245   0.587           20.6
 3 01030500   3.27     2.04        0.0474     0.277   0.624           17.2
 4 01031500   3.52     2.07        0.104      0.292   0.588           18.9
 5 01047000   3.32     2.09        0.148      0.280   0.629           20.1
 6 01052500   3.73     2.10        0.152      0.353   0.562           13.5
 7 01054200   4.07     2.13        0.105      0.300   0.523           17.5
 8 01055000   3.49     2.09        0.167      0.306   0.599           19.2
 9 01057000   3.57     2.13        0.0791     0.251   0.597           20.4
10 01073000   3.50     2.21        0.0304     0.175   0.630           20.8
# ℹ 661 more rows
# ℹ 51 more variables: high_prec_dur <dbl>, high_prec_timing <chr>,
#   low_prec_freq <dbl>, low_prec_dur <dbl>, low_prec_timing <chr>,
#   geol_1st_class <chr>, glim_1st_class_frac <dbl>, geol_2nd_class <chr>,
#   glim_2nd_class_frac <dbl>, carbonate_rocks_frac <dbl>, geol_porostiy <dbl>,
#   geol_permeability <dbl>, soil_depth_pelletier <dbl>,
#   soil_depth_statsgo <dbl>, soil_porosity <dbl>, soil_conductivity <dbl>, …
…
library(dials)
library(tidymodels)

dials_final <- finalize(dials, flow_recipe2 %>% prep() %>% juice())

my.grid <- grid_space_filling(
  dials_final,
  size = 25,
  method = "lhs"
)

my.grid

# A tibble: 25 × 2
    mtry min_n
   <int> <int>
 1     1    24
 2     1    13
 3     1    33
 4     1     5
 5     1    19
 6     1    27
 7     1    36
 8     1    11
 9     1     3
10     2    21
# ℹ 15 more rows
…
The results of my autoplot visualization show how different combinations of my hyperparameters affect the random forest tree model performance. For the Y-axis performance metric, my mae error is lower with values closer to 0. My rmse performance metric is also low indicating a lower error. The rsq values are very close to 1 showing that the model’s predictions match the actual data well.

6. Check the skill of the tuned model

metrics_tuned <- collect_metrics(model_params)

metrics_tuned

# A tibble: 75 × 8
    mtry min_n .metric .estimator  mean     n std_err .config              
   <int> <int> <chr>   <chr>      <dbl> <int>   <dbl> <chr>                
 1     1    24 mae     standard   0.283    10 0.0143  Preprocessor1_Model01
 2     1    24 rmse    standard   0.479    10 0.0319  Preprocessor1_Model01
 3     1    24 rsq     standard   0.914    10 0.00653 Preprocessor1_Model01
 4     1    13 mae     standard   0.269    10 0.0135  Preprocessor1_Model02
 5     1    13 rmse    standard   0.446    10 0.0277  Preprocessor1_Model02
 6     1    13 rsq     standard   0.924    10 0.00676 Preprocessor1_Model02
 7     1    33 mae     standard   0.295    10 0.0165  Preprocessor1_Model03
 8     1    33 rmse    standard   0.508    10 0.0375  Preprocessor1_Model03
 9     1    33 rsq     standard   0.903    10 0.00645 Preprocessor1_Model03
10     1     5 mae     standard   0.269    10 0.0147  Preprocessor1_Model04
# ℹ 65 more rows
…
collect_metrics(final_fit)

# A tibble: 2 × 4
  .metric .estimator .estimate .config             
  <chr>   <chr>          <dbl> <chr>               
1 rmse    standard       0.418 Preprocessor1_Model1
2 rsq     standard       0.935 Preprocessor1_Model1

The root mean squared error is slightly smaller (0.413) than the training rmse which means it is producing more accurate predictions. The R-sqaured is 0.94 which explains 94% of the variability in the test data. This value is also very close to the training performance, suggesting that the model preforms well without over fitting. These are extremely strong results, especially in streamflow predictions where variance can be high.

preds <- collect_predictions(final_fit)

preds

# A tibble: 135 × 5
   .pred id                .row q_mean .config             
   <dbl> <chr>            <int>  <dbl> <chr>               
 1  2.38 train/test split     6   2.41 Preprocessor1_Model1
 2  2.94 train/test split     7   2.73 Preprocessor1_Model1
 3  1.89 train/test split    10   1.70 Preprocessor1_Model1
 4  1.66 train/test split    12   2.13 Preprocessor1_Model1
 5  1.56 train/test split    13   1.96 Preprocessor1_Model1
 6  1.95 train/test split    15   2.08 Preprocessor1_Model1
 7  1.85 train/test split    20   1.86 Preprocessor1_Model1
 8  1.91 train/test split    27   2.07 Preprocessor1_Model1
 9  2.45 train/test split    31   2.72 Preprocessor1_Model1
10  1.83 train/test split    33   1.96 Preprocessor1_Model1
# ℹ 125 more rows
…
