lab 6 – csu-ess-lab6
…
From the results of autoplot and rank_results I would move forward with the neural network model.

Question 4. LM Pipeline to predict mean streamflow

4.a. Data Prep/Data Splitting

camels %>%
  select(high_prec_freq, q95, q_mean) %>%
  mutate(across(everything(), ~ ifelse(is.infinite(.), NA, .))) %>%
  drop_na()

# A tibble: 670 × 3
   high_prec_freq   q95 q_mean
            <dbl> <dbl>  <dbl>
 1           13.0  6.37   1.70
 2           20.6  7.12   2.17
 3           17.2  6.85   1.82
 4           18.9  8.01   2.03
 5           20.1  8.10   2.18
 6           13.5  8.67   2.41
 7           17.5 10.1    2.73
 8           19.2  8.44   2.28
 9           20.4  6.87   1.82
10           20.8  5.78   1.70
# ℹ 660 more rows
…
